{"photos":{"page":1,"pages":10,"perpage":100,"total":1000,"photo":[{"id":"31955657534","owner":"146429790@N07","secret":"c273a6015b","server":"331","farm":1,"title":"Top 4 Bollywood Dance Songs Video 2017","ispublic":1,"isfriend":0,"isfamily":0},{"id":"31955674354","owner":"117565928@N03","secret":"1a3f14ea1c","server":"2281","farm":3,"title":"20170207_093101","ispublic":1,"isfriend":0,"isfamily":0},{"id":"31955675694","owner":"105638830@N03","secret":"a18c8fc171","server":"2737","farm":3,"title":"Yupiter 8)","ispublic":1,"isfriend":0,"isfamily":0},{"id":"31955677084","owner":"66718686@N06","secret":"0dd6e6ba4b","server":"2453","farm":3,"title":"Avant la pluie","ispublic":1,"isfriend":0,"isfamily":0},{"id":"31955681754","owner":"72899564@N04","secret":"e2632def83","server":"507","farm":1,"title":"CSD_8540-2","ispublic":1,"isfriend":0,"isfamily":0},{"id":"31955681764","owner":"44616033@N08","secret":"b16888e48d","server":"2564","farm":3,"title":"A Sunny Day","ispublic":1,"isfriend":0,"isfamily":0},{"id":"31955681854","owner":"49118647@N08","secret":"5500c7eed1","server":"2924","farm":3,"title":"CamGrab [LW2-20170209102140.jpg]","ispublic":1,"isfriend":0,"isfamily":0},{"id":"31955682394","owner":"96974204@N08","secret":"6a958bf2b1","server":"2391","farm":3,"title":"20170207  3481  , Tortola Island, British Virgin Islands.jpg","ispublic":1,"isfriend":0,"isfamily":0},{"id":"31955682874","owner":"77796013@N00","secret":"b8df935b3e","server":"425","farm":1,"title":"20170204-IMG_0382 Hedge Parsley Seed Head Nobury Inkberrow Worcestershire.jpg","ispublic":1,"isfriend":0,"isfamily":0},{"id":"31955687804","owner":"141885095@N06","secret":"d1f1ab713e","server":"708","farm":1,"title":"Dome cam alert.","ispublic":1,"isfriend":0,"isfamily":0},{"id":"31955687964","owner":"147460944@N05","secret":"0308c699f4","server":"318","farm":1,"title":"20170209_105449","ispublic":1,"isfriend":0,"isfamily":0},{"id":"31955688064","owner":"147970649@N02","secret":"1a1a6757f4","server":"2006","farm":3,"title":"","ispublic":1,"isfriend":0,"isfamily":0},{"id":"31955688144","owner":"43115669@N08","secret":"8a3b8ddfcb","server":"718","farm":1,"title":"2017.2.9\u9cf6\u5634\u5c71","ispublic":1,"isfriend":0,"isfamily":0},{"id":"31984472633","owner":"62991404@N06","secret":"b732cdae7e","server":"2944","farm":3,"title":"Record by Always E-mail, 2017-02-09 05:20:17","ispublic":1,"isfriend":0,"isfamily":0},{"id":"31984473263","owner":"146605720@N05","secret":"28a85e4350","server":"530","farm":1,"title":"","ispublic":1,"isfriend":0,"isfamily":0},{"id":"31984480023","owner":"97102756@N07","secret":"2d8574dd55","server":"3741","farm":4,"title":"N-2017-02-09-1920_f","ispublic":1,"isfriend":0,"isfamily":0},{"id":"31984481403","owner":"125563694@N06","secret":"93620dfd3b","server":"2459","farm":3,"title":"share","ispublic":1,"isfriend":0,"isfamily":0},{"id":"31984490263","owner":"129423868@N03","secret":"79173e713d","server":"2618","farm":3,"title":"201702091921","ispublic":1,"isfriend":0,"isfamily":0},{"id":"31984493983","owner":"27847040@N07","secret":"e52214c392","server":"2516","farm":3,"title":"2017-02-09_20-47-59","ispublic":1,"isfriend":0,"isfamily":0},{"id":"31984494343","owner":"91994044@N00","secret":"47073451e1","server":"2271","farm":3,"title":"Texture of punctured steel","ispublic":1,"isfriend":0,"isfamily":0},{"id":"31984497603","owner":"147553633@N04","secret":"e5569c4bdf","server":"522","farm":1,"title":"","ispublic":1,"isfriend":0,"isfamily":0},{"id":"31984498343","owner":"43168849@N08","secret":"0e9cd956ec","server":"2644","farm":3,"title":"","ispublic":1,"isfriend":0,"isfamily":0},{"id":"31984498823","owner":"132012657@N05","secret":"0d96cf74cb","server":"2554","farm":3,"title":"regram @ilablabjathea.rastro #GlaizaDeCastro \u00a9\ud83d\udcf7Fatima Zarina Photography #PVTSEncantadia","ispublic":1,"isfriend":0,"isfamily":0},{"id":"31984499223","owner":"113300176@N05","secret":"2d2da86ec1","server":"2534","farm":3,"title":"2","ispublic":1,"isfriend":0,"isfamily":0},{"id":"31984499513","owner":"50001466@N03","secret":"ff39fb4149","server":"2827","farm":3,"title":"Beth Tweddle Inspiring OLOC","ispublic":1,"isfriend":0,"isfamily":0},{"id":"31984499553","owner":"142876319@N02","secret":"dbd39b3619","server":"2933","farm":3,"title":"3 Bulan Jadi Pacar Taylor Swift, Tom Hiddleston Akhirnya Bersuara3","ispublic":1,"isfriend":0,"isfamily":0},{"id":"31984499693","owner":"147030184@N07","secret":"0a5dbf053b","server":"704","farm":1,"title":"2017-02-08_10-34-15","ispublic":1,"isfriend":0,"isfamily":0},{"id":"31984500323","owner":"33593406@N03","secret":"6569954c23","server":"3773","farm":4,"title":"Baking. Well why not.","ispublic":1,"isfriend":0,"isfamily":0},{"id":"31984500793","owner":"144896940@N05","secret":"722d91bda6","server":"2815","farm":3,"title":"How To Get The Most Out Of Social Media!","ispublic":1,"isfriend":0,"isfamily":0},{"id":"31984500933","owner":"12777830@N00","secret":"76fa6b2cfe","server":"504","farm":1,"title":"image","ispublic":1,"isfriend":0,"isfamily":0},{"id":"31984500993","owner":"143080025@N06","secret":"9cc81e8ef0","server":"2849","farm":3,"title":"image","ispublic":1,"isfriend":0,"isfamily":0},{"id":"31984501273","owner":"130838244@N04","secret":"935f24396b","server":"2777","farm":3,"title":"I'll keep on traveling...","ispublic":1,"isfriend":0,"isfamily":0},{"id":"31984502243","owner":"128506758@N05","secret":"e08754f3f1","server":"292","farm":1,"title":"IMG_0290","ispublic":1,"isfriend":0,"isfamily":0},{"id":"32418286910","owner":"147032119@N04","secret":"166be083cd","server":"479","farm":1,"title":"Scopri i 50 migliori strumenti SEO","ispublic":1,"isfriend":0,"isfamily":0},{"id":"32418287590","owner":"136958113@N05","secret":"a734b86bd1","server":"2788","farm":3,"title":"Dollar struggles \u2013 Live Market Open from 13:00 GMT","ispublic":1,"isfriend":0,"isfamily":0},{"id":"32418289140","owner":"147284449@N04","secret":"bd4f65e15e","server":"2013","farm":3,"title":"Corporate Photo","ispublic":1,"isfriend":0,"isfamily":0},{"id":"32418296790","owner":"143651395@N03","secret":"0e1d3195c1","server":"2946","farm":3,"title":"Na splitskom krnjevalu zanimljivi glazbeni gosti","ispublic":1,"isfriend":0,"isfamily":0},{"id":"32418297360","owner":"111494793@N05","secret":"2000347c95","server":"2249","farm":3,"title":"\u200f#\u0639\u0627\u062c\u0644_\u0641\u0631\u0646\u0633\u0627 \u062c\u0631\u062d\u0649 \u0641\u064a \u0627\u0646\u0641\u062c\u0627\u0631 \u0641\u064a \u0623\u062d\u062f \u0627\u0644\u0645\u0641\u0627\u0639\u0644\u0627\u062a \u0627\u0644\u0646\u0648\u0648\u064a\u0629 \u0634\u0645\u0627\u0644\u064a \u0641\u0631\u0646\u0633\u0627 \u0648\u062a\u0623\u0643\u064a\u062f\u0627\u062a \u0627\u0646 \u0644\u0627 \u062e\u0637\u0631 \u0645\u0646 \u062d\u062f\u0648\u062b \u062a\u0633\u0631\u0628 \u0646\u0648\u0648\u064a \u202a\u202c","ispublic":1,"isfriend":0,"isfamily":0},{"id":"32418300620","owner":"24858820@N00","secret":"0e7806fb65","server":"2311","farm":3,"title":"The itch","ispublic":1,"isfriend":0,"isfamily":0},{"id":"32418306310","owner":"9243878@N06","secret":"83006c9b78","server":"766","farm":1,"title":"IMG_0374","ispublic":1,"isfriend":0,"isfamily":0},{"id":"32418317620","owner":"141549133@N06","secret":"9f1fb8afa6","server":"2280","farm":3,"title":"Antonio's Christening","ispublic":1,"isfriend":0,"isfamily":0},{"id":"32418318240","owner":"43718245@N00","secret":"5321b517e8","server":"286","farm":1,"title":"pinktsteren 2009 010 (2)","ispublic":1,"isfriend":0,"isfamily":0},{"id":"32645512462","owner":"140116576@N08","secret":"80dd984ae3","server":"2927","farm":3,"title":"Lake McKenzie New Zealand [oc] [4608x3456]","ispublic":1,"isfriend":0,"isfamily":0},{"id":"32645516202","owner":"149678168@N08","secret":"334aaceec9","server":"3859","farm":4,"title":"Motion Detection","ispublic":1,"isfriend":0,"isfamily":0},{"id":"32645517672","owner":"135826330@N06","secret":"c7c5b7dc27","server":"3952","farm":4,"title":"Saiyami Kher looks really different but gorgeous as usual on the cover of this fashion magazine  #Blog","ispublic":1,"isfriend":0,"isfamily":0},{"id":"32645523772","owner":"115202616@N06","secret":"71fda2a379","server":"2411","farm":3,"title":"RT @triathlonNL: We do! https:\/\/t.co\/EA9Xh9YQPq","ispublic":1,"isfriend":0,"isfamily":0},{"id":"32645530872","owner":"26862761@N06","secret":"7c38f40f38","server":"3929","farm":4,"title":"Stonehenge","ispublic":1,"isfriend":0,"isfamily":0},{"id":"32645533952","owner":"144341641@N02","secret":"85f676ee4e","server":"2899","farm":3,"title":"","ispublic":1,"isfriend":0,"isfamily":0},{"id":"32645534142","owner":"144923756@N06","secret":"de5da1f86e","server":"3763","farm":4,"title":"I Have Penned A Beautiful Article On \"Computation Of Advance Tax\". It Is Available On FaceBook, LinkedIn, Instagram, Etc. Please Read It.    C.A. FARID. BATADA.","ispublic":1,"isfriend":0,"isfamily":0},{"id":"32645537752","owner":"80047168@N08","secret":"17d540e163","server":"2516","farm":3,"title":"Riva del Garda","ispublic":1,"isfriend":0,"isfamily":0},{"id":"32645538652","owner":"20392184@N06","secret":"6f1edbb99a","server":"2831","farm":3,"title":"Musical Transport","ispublic":1,"isfriend":0,"isfamily":0},{"id":"32645541912","owner":"147543874@N07","secret":"f154a92c5e","server":"779","farm":1,"title":"#\u043f\u043b\u0451\u043d\u043a\u0430 #zenit12xp #fomapanfilm #fomapan200 #budapest #hungary #winter #february #daybyday #bw","ispublic":1,"isfriend":0,"isfamily":0},{"id":"32645542502","owner":"140485053@N04","secret":"8b94416b17","server":"454","farm":1,"title":"#lesagul #russia #\u0440\u043e\u0441\u0441\u0438\u044f #\u043f\u0440\u0438\u0440\u043e\u0434\u0430 #\u043b\u0435\u0441 #nature #igtravel #vacation #instatraveling #mytravelgram #travelingram #tourism #travelgram #travelling #traveling #visiting #fun #tourist #holiday #\u043a\u0440\u0430\u0441\u043e\u0442\u0430 #travel #appitme #trip #instatravel #instago #instagood #p","ispublic":1,"isfriend":0,"isfamily":0},{"id":"32645542812","owner":"39136758@N05","secret":"c17f2d7d6f","server":"2714","farm":3,"title":"Paula","ispublic":1,"isfriend":0,"isfamily":0},{"id":"32645543662","owner":"71188731@N00","secret":"bcd697d590","server":"3942","farm":4,"title":"FOXTROT ALERT","ispublic":1,"isfriend":0,"isfamily":0},{"id":"32645543682","owner":"145400993@N07","secret":"ba7f8aac68","server":"412","farm":1,"title":"Ems medical response car","ispublic":1,"isfriend":0,"isfamily":0},{"id":"32645544192","owner":"10285289@N03","secret":"1c86ae1262","server":"2820","farm":3,"title":"20170202_100326_HDR","ispublic":1,"isfriend":0,"isfamily":0},{"id":"32675590411","owner":"75982397@N07","secret":"5aa64c480a","server":"2497","farm":3,"title":"20170204_133213","ispublic":1,"isfriend":0,"isfamily":0},{"id":"32675590811","owner":"145550330@N07","secret":"dd6483c33a","server":"2365","farm":3,"title":"Comfortable Modern Office Chair as Pair of Your Desk Ideas","ispublic":1,"isfriend":0,"isfamily":0},{"id":"32675595591","owner":"117276714@N04","secret":"3510a32410","server":"2758","farm":3,"title":"2016\u751f\u6d3b\u7167","ispublic":1,"isfriend":0,"isfamily":0},{"id":"32675599531","owner":"15265756@N00","secret":"6edb898724","server":"3777","farm":4,"title":"DSC03085","ispublic":1,"isfriend":0,"isfamily":0},{"id":"32675600231","owner":"114640503@N02","secret":"428f9ee52f","server":"752","farm":1,"title":"DSC00761","ispublic":1,"isfriend":0,"isfamily":0},{"id":"32675600451","owner":"141424459@N02","secret":"f8363b39d5","server":"2811","farm":3,"title":"DSC09735.jpg","ispublic":1,"isfriend":0,"isfamily":0},{"id":"32675602981","owner":"147387811@N02","secret":"f7cbce0c5d","server":"3785","farm":4,"title":"Mototrance Blaze Trace Open Face Helmet (Black)","ispublic":1,"isfriend":0,"isfamily":0},{"id":"32675607611","owner":"12982212@N08","secret":"d0dc594c0c","server":"2085","farm":3,"title":"IMGP5105","ispublic":1,"isfriend":0,"isfamily":0},{"id":"32675608901","owner":"129234437@N03","secret":"68f8b68841","server":"336","farm":1,"title":"Dusty nuts","ispublic":1,"isfriend":0,"isfamily":0},{"id":"32675612421","owner":"61947855@N00","secret":"b7f77a9e82","server":"2146","farm":3,"title":"000DC5D2F2A9(JonCam) motion alarm at 20170209182202","ispublic":1,"isfriend":0,"isfamily":0},{"id":"32675614901","owner":"144725923@N06","secret":"7139138bee","server":"2696","farm":3,"title":".","ispublic":1,"isfriend":0,"isfamily":0},{"id":"32675615611","owner":"39378532@N06","secret":"cdeb248d91","server":"2770","farm":3,"title":"Residential center and apartments at Strada Delfinui - some of OSAUI's participants live her and a group of elders have income generating activities here - Romania 2016","ispublic":1,"isfriend":0,"isfamily":0},{"id":"32675615661","owner":"143527193@N05","secret":"535f5b4cae","server":"2060","farm":3,"title":"0ab0659c-143b-4a28-8d55-2b5979a1d4a1","ispublic":1,"isfriend":0,"isfamily":0},{"id":"32675615791","owner":"147971382@N05","secret":"230c521519","server":"758","farm":1,"title":"My room","ispublic":1,"isfriend":0,"isfamily":0},{"id":"32675616161","owner":"130400367@N04","secret":"9681645a01","server":"2684","farm":3,"title":"20170207_072842_HDR-01","ispublic":1,"isfriend":0,"isfamily":0},{"id":"32675616911","owner":"100808075@N08","secret":"42e95996c2","server":"483","farm":1,"title":"9 \u0444\u0435\u0432\u0440\u0430\u043b\u044f 1935 \u0433\u043e\u0434\u0430 \u0431\u044b\u043b\u043e \u0441\u043e\u0437\u0434\u0430\u043d\u043e \u0423\u043f\u0440\u0430\u0432\u043b\u0435\u043d\u0438\u0435 \u041d\u041a\u0412\u0414 \u043f\u043e \u0422\u0432\u0435\u0440\u0441\u043a\u043e\u0439 (\u041a\u0430\u043b\u0438\u043d\u0438\u043d\u0441\u043a\u043e\u0439) \u043e\u0431\u043b\u0430\u0441\u0442\u0438. \u041f\u0435\u0440\u0432\u044b\u043c \u043d\u0430\u0440\u043e\u0434\u043d\u044b\u043c \u043a\u043e\u043c\u0438\u0441\u0441\u0430\u0440\u043e\u043c \u0423\u041d\u041a\u0412\u0414 \u0431\u044b\u043b \u043d\u0430\u0437\u043d\u0430\u0447\u0435\u043d \u043a\u043e\u043c\u0438\u0441\u0441\u0430\u0440 \u0433\u043e\u0441\u0443\u0434\u0430\u0440\u0441\u0442\u0432\u0435\u043d\u043d\u043e\u0439 \u0431\u0435\u0437\u043e\u043f\u0430\u0441\u043d\u043e\u0441\u0442\u0438 3-\u0433\u043e \u0440\u0430\u043d\u0433\u0430 \u042f.\u0410. \u0414\u0435\u0439\u0447, \u043a\u043e\u0442\u043e\u0440\u044b\u0439 \u0440\u0430\u0431\u043e\u0442\u0430\u043b \u0432 \u0434\u0430\u043d\u043d\u043e\u0439 \u0434\u043e\u043b\u0436\u043d\u043e\u0441\u0442\u0438 \u0434\u043e 1936 \u0433\u043e\u0434\u0430. \u041f\u043e\u0441\u043b\u0435 \u043b\u0438\u043a\u0432\u0438\u0434\u0430\u0446\u0438\u0438","ispublic":1,"isfriend":0,"isfamily":0},{"id":"32675617161","owner":"141634434@N07","secret":"3090d8b2c4","server":"2820","farm":3,"title":"D-Link Camera Alert: BentleyLake.ca - Schedule Snapshot Recording","ispublic":1,"isfriend":0,"isfamily":0},{"id":"32675617621","owner":"144480500@N05","secret":"4d3743a694","server":"2446","farm":3,"title":"Colours Of The Sky Device:Samsung Galaxy Core Prime Supporting App:Pixlr","ispublic":1,"isfriend":0,"isfamily":0},{"id":"32758372546","owner":"141316404@N03","secret":"87ea50d60c","server":"2720","farm":3,"title":"","ispublic":1,"isfriend":0,"isfamily":0},{"id":"32758374326","owner":"147495482@N04","secret":"3ba4bc7895","server":"607","farm":1,"title":"Getaw","ispublic":1,"isfriend":0,"isfamily":0},{"id":"32758374716","owner":"77865123@N05","secret":"876f2ca005","server":"2680","farm":3,"title":"","ispublic":1,"isfriend":0,"isfamily":0},{"id":"32758375116","owner":"151931219@N03","secret":"b4046924e0","server":"491","farm":1,"title":"3C97BEC5-28F3-4483-9196-813F3D9228FE","ispublic":1,"isfriend":0,"isfamily":0},{"id":"32758378646","owner":"146642059@N04","secret":"6a33b70933","server":"391","farm":1,"title":"Tu portal de anuncios GRATUITOS del mundo del camping y el caravaning: http:\/\/ift.tt\/2kIzWbF ... \u00a1Preciosa Airstream! ... #charmingcamping #campinglife #campingpix #glamping #caravanas #autocaravanas #campers #caravaning #campingcar #motorhome #campervan","ispublic":1,"isfriend":0,"isfamily":0},{"id":"32798549065","owner":"144724802@N06","secret":"cc6be41d77","server":"412","farm":1,"title":"11th Global \ud83c\udf0eTours \u2708\ufe0fBeijing, China : After successfully \ud83d\udc4f\ud83d\ude00\ud83d\udc4d introducing 888 Lucky IPA & 888 Pilsner \ud83c\udf7bto beers \u2764\ufe0fin , 888 Crafts Beers from Washington DC will be at the 2017 Beijing Invitational Cr","ispublic":1,"isfriend":0,"isfamily":0},{"id":"32798549665","owner":"94892984@N00","secret":"29d866f97d","server":"2614","farm":3,"title":"out of my bedroom window IV","ispublic":1,"isfriend":0,"isfamily":0},{"id":"32798550345","owner":"27285297@N06","secret":"ab4c3fed11","server":"428","farm":1,"title":"20170204_170143-01_wm","ispublic":1,"isfriend":0,"isfamily":0},{"id":"32798551475","owner":"147676590@N02","secret":"cebe4c4252","server":"3736","farm":4,"title":"IMG_2387","ispublic":1,"isfriend":0,"isfamily":0},{"id":"32798552975","owner":"72281941@N03","secret":"93673be327","server":"3746","farm":4,"title":"2017-02-09_11-18-00","ispublic":1,"isfriend":0,"isfamily":0},{"id":"32798553525","owner":"148088206@N03","secret":"741361b0e2","server":"2628","farm":3,"title":"IMG_20170209_014308_645","ispublic":1,"isfriend":0,"isfamily":0},{"id":"32798555975","owner":"131651370@N05","secret":"ca45536386","server":"534","farm":1,"title":"20160820152640","ispublic":1,"isfriend":0,"isfamily":0},{"id":"32798562985","owner":"23811050@N07","secret":"acff529223","server":"2928","farm":3,"title":"Smoker 2","ispublic":1,"isfriend":0,"isfamily":0},{"id":"32798564115","owner":"141853571@N05","secret":"fc60f4ed8b","server":"357","farm":1,"title":"Rugby life","ispublic":1,"isfriend":0,"isfamily":0},{"id":"32798564945","owner":"46450451@N06","secret":"e8a4cbcc2b","server":"2865","farm":3,"title":"PM urges alem, ulema to intensify campaign against militancy","ispublic":1,"isfriend":0,"isfamily":0},{"id":"32798565825","owner":"137729389@N08","secret":"ebca05c382","server":"597","farm":1,"title":"Sesungguhnya hanya orang-orang yg bersabar diberikan pahala bagi mereka tanpa batas (Az-Zumar:10) . Follow @cintaquran_ Follow @cintaquran_ Follow @cintaquran_ .","ispublic":1,"isfriend":0,"isfamily":0},{"id":"32798567015","owner":"147544081@N02","secret":"c1a9c3568e","server":"2771","farm":3,"title":"Hong Kong (26).jpg","ispublic":1,"isfriend":0,"isfamily":0},{"id":"32798567415","owner":"57141576@N03","secret":"13475e936a","server":"2226","farm":3,"title":"BPM09837","ispublic":1,"isfriend":0,"isfamily":0},{"id":"32798569575","owner":"132004421@N04","secret":"e79ed119de","server":"2133","farm":3,"title":"Th\u1ee7 t\u01b0\u1edbng chu\u1ea9n b\u1ecb \u0111\u1ed1i tho\u1ea1i v\u1edbi c\u00e1c doanh nghi\u1ec7p - Hyundai tucson - Xe \u00f4 t\u00f4 Hyundai m\u1edbi nh\u1ea5t","ispublic":1,"isfriend":0,"isfamily":0},{"id":"32798570385","owner":"141580668@N06","secret":"647bbd6808","server":"2936","farm":3,"title":"Evoking Orange Colored Embroidered Saree Sarees on Shimply.com","ispublic":1,"isfriend":0,"isfamily":0},{"id":"32798571035","owner":"151328804@N04","secret":"ddb7c74348","server":"2726","farm":3,"title":"Let\u2019s grow together with long term support plan of Roopokar","ispublic":1,"isfriend":0,"isfamily":0},{"id":"32798571265","owner":"148525593@N02","secret":"a02ff956ce","server":"3729","farm":4,"title":"20170209_092408","ispublic":1,"isfriend":0,"isfamily":0},{"id":"32798571315","owner":"142986545@N08","secret":"f76cfe6e48","server":"2308","farm":3,"title":"Silhouette","ispublic":1,"isfriend":0,"isfamily":0},{"id":"32798574845","owner":"146045967@N06","secret":"522aa64160","server":"2630","farm":3,"title":"REGAL ELEGANCE REFRESHING COLLECTION DESIGNER SAREE FOR ALL","ispublic":1,"isfriend":0,"isfamily":0},{"id":"32798575275","owner":"147872031@N05","secret":"4a9323e91e","server":"601","farm":1,"title":"raC1Thah0a","ispublic":1,"isfriend":0,"isfamily":0}]},"stat":"ok"}